FIFA18
…
##                 Name Overall                Club
## 1  Cristiano Ronaldo      94      Real Madrid CF
## 2           L. Messi      93        FC Barcelona
## 3             Neymar      92 Paris Saint-Germain
## 4   L. Su\303\241rez      92        FC Barcelona
## 5           M. Neuer      92    FC Bayern Munich
## 6     R. Lewandowski      91    FC Bayern Munich
## 7             De Gea      90   Manchester United
## 8          E. Hazard      90             Chelsea
## 9           T. Kroos      90      Real Madrid CF
## 10 G. Higua\303\255n      90            Juventus

Then, lets have a look at each teams best players overall, worst players overall and the average overall.

## # A tibble: 648 x 4
##    Club                 Best Worst   Ave
##    <fct>               <dbl> <dbl> <dbl>
##  1 FC Barcelona          93.   70.  82.6
##  2 Juventus              90.   69.  81.7
##  3 Real Madrid CF        94.   64.  81.0
##  4 FC Bayern Munich      92.   61.  79.4
##  5 Paris Saint-Germain   92.   61.  78.0
##  6 Manchester United     90.   63.  77.7
##  7 Napoli                87.   53.  77.7
##  8 Roma                  86.   58.  77.4
##  9 Sevilla FC            83.   60.  77.0
## 10 Chelsea               90.   58.  76.7
## # ... with 638 more rows
…
# I met a problem in this chunk, when I run it in R Markdown, it works, but when I knit this file and output the html file, these numbers will be missing.

We can see that, C.Ronaldo and Messi earned most.

## # A tibble: 648 x 2
##    Club              TotalWage
##    <fct>                 <dbl>
##  1 FC Barcelona       4792000.
##  2 Real Madrid CF     4751000.
##  3 Manchester United  3558000.
##  4 Chelsea            3537000.
##  5 FC Bayern Munich   3273000.
##  6 Juventus           3165000.
##  7 Manchester City    3057000.
##  8 Arsenal            3007000.
##  9 Liverpool          2664000.
## 10 Everton            2499000.
## # ... with 638 more rows
…
